{
  "artists" : {
    "href" : "https://api.spotify.com/v1/search?query=genre%3A%22country%22&type=artist&offset=0&limit=20",
    "items" : [ {
      "external_urls" : {
        "spotify" : "https://open.spotify.com/artist/3b8QkneNDz4JHKKKlLgYZg"
      },
      "followers" : {
        "href" : null,
        "total" : 2299717
      },
      "genres" : [ "contemporary country", "country", "country road", "modern country rock" ],
      "href" : "https://api.spotify.com/v1/artists/3b8QkneNDz4JHKKKlLgYZg",
      "id" : "3b8QkneNDz4JHKKKlLgYZg",
      "images" : [ {
        "height" : 640,
        "url" : "https://i.scdn.co/image/356ea40eb2d3f688a0f542ebc685f8c111f2c043",
        "width" : 640
      }, {
        "height" : 320,
        "url" : "https://i.scdn.co/image/01dea6fbee2e1ee4c1dad44a3e456a08558d07d4",
        "width" : 320
      }, {
        "height" : 160,
        "url" : "https://i.scdn.co/image/e7a2518f8bb5b8ef9844f2eeedfc6fa980016fe6",
        "width" : 160
      } ],
      "name" : "Florida Georgia Line",
      "popularity" : 83,
      "type" : "artist",
      "uri" : "spotify:artist:3b8QkneNDz4JHKKKlLgYZg"
    }, {
      "external_urls" : {
        "spotify" : "https://open.spotify.com/artist/718COspgdWOnwOFpJHRZHS"
      },
      "followers" : {
        "href" : null,
        "total" : 704873
      },
      "genres" : [ "contemporary country", "country road" ],
      "href" : "https://api.spotify.com/v1/artists/718COspgdWOnwOFpJHRZHS",
      "id" : "718COspgdWOnwOFpJHRZHS",
      "images" : [ {
        "height" : 640,
        "url" : "https://i.scdn.co/image/d3a4728d883da393f53451a43dfebdd5e40a332b",
        "width" : 640
      }, {
        "height" : 320,
        "url" : "https://i.scdn.co/image/9481b9d9290471293b9b09f17200ff6d8ac83920",
        "width" : 320
      }, {
        "height" : 160,
        "url" : "https://i.scdn.co/image/30d8c44e487707d8f937783c8e929fe6356339e5",
        "width" : 160
      } ],
      "name" : "Luke Combs",
      "popularity" : 80,
      "type" : "artist",
      "uri" : "spotify:artist:718COspgdWOnwOFpJHRZHS"
    }, {
      "external_urls" : {
        "spotify" : "https://open.spotify.com/artist/3oSJ7TBVCWMDMiYjXNiCKE"
      },
      "followers" : {
        "href" : null,
        "total" : 1070821
      },
      "genres" : [ "contemporary country", "country road" ],
      "href" : "https://api.spotify.com/v1/artists/3oSJ7TBVCWMDMiYjXNiCKE",
      "id" : "3oSJ7TBVCWMDMiYjXNiCKE",
      "images" : [ {
        "height" : 640,
        "url" : "https://i.scdn.co/image/d1ec54374d940eb182d3caeccf05cd19ba3cc943",
        "width" : 640
      }, {
        "height" : 320,
        "url" : "https://i.scdn.co/image/1f6cb291a9d2674371f1f860814e6da47ef88526",
        "width" : 320
      }, {
        "height" : 160,
        "url" : "https://i.scdn.co/image/af371900c335da8a6013702bdc7097c2937944ec",
        "width" : 160
      } ],
      "name" : "Kane Brown",
      "popularity" : 79,
      "type" : "artist",
      "uri" : "spotify:artist:3oSJ7TBVCWMDMiYjXNiCKE"
    }, {
      "external_urls" : {
        "spotify" : "https://open.spotify.com/artist/3FfvYsEGaIb52QPXhg4DcH"
      },
      "followers" : {
        "href" : null,
        "total" : 2645302
      },
      "genres" : [ "contemporary country", "country", "country road" ],
      "href" : "https://api.spotify.com/v1/artists/3FfvYsEGaIb52QPXhg4DcH",
      "id" : "3FfvYsEGaIb52QPXhg4DcH",
      "images" : [ {
        "height" : 640,
        "url" : "https://i.scdn.co/image/62ce5e006733413abea9a3abfe000acb593dc4ed",
        "width" : 640
      }, {
        "height" : 320,
        "url" : "https://i.scdn.co/image/4304f5964f561b8ea7effa966e3767882b9d8478",
        "width" : 320
      }, {
        "height" : 160,
        "url" : "https://i.scdn.co/image/44fd717319a96bf1af017e8778db9dd74029a30c",
        "width" : 160
      } ],
      "name" : "Jason Aldean",
      "popularity" : 78,
      "type" : "artist",
      "uri" : "spotify:artist:3FfvYsEGaIb52QPXhg4DcH"
    }, {
      "external_urls" : {
        "spotify" : "https://open.spotify.com/artist/0BvkDsjIUla7X0k6CSWh1I"
      },
      "followers" : {
        "href" : null,
        "total" : 3411970
      },
      "genres" : [ "contemporary country", "country", "country road" ],
      "href" : "https://api.spotify.com/v1/artists/0BvkDsjIUla7X0k6CSWh1I",
      "id" : "0BvkDsjIUla7X0k6CSWh1I",
      "images" : [ {
        "height" : 640,
        "url" : "https://i.scdn.co/image/85b7f6d10ae06d21300c9d95f7ea18b35d1df547",
        "width" : 640
      }, {
        "height" : 320,
        "url" : "https://i.scdn.co/image/1b6415eafc9029ef68bf2294868ef42f8a1005a0",
        "width" : 320
      }, {
        "height" : 160,
        "url" : "https://i.scdn.co/image/57aa864a50f5410affb4fe436d6b4d11e452ab62",
        "width" : 160
      } ],
      "name" : "Luke Bryan",
      "popularity" : 78,
      "type" : "artist",
      "uri" : "spotify:artist:0BvkDsjIUla7X0k6CSWh1I"
    }, {
      "external_urls" : {
        "spotify" : "https://open.spotify.com/artist/6x2LnllRG5uGarZMsD4iO8"
      },
      "followers" : {
        "href" : null,
        "total" : 2241023
      },
      "genres" : [ "contemporary country", "country", "country road", "modern country rock" ],
      "href" : "https://api.spotify.com/v1/artists/6x2LnllRG5uGarZMsD4iO8",
      "id" : "6x2LnllRG5uGarZMsD4iO8",
      "images" : [ {
        "height" : 640,
        "url" : "https://i.scdn.co/image/13b9671e7a7f063f13f8a02e9042be1eb8e4c4a0",
        "width" : 640
      }, {
        "height" : 320,
        "url" : "https://i.scdn.co/image/fcd9098a39d5474047ae7f70fabeb4abe4e9ec2a",
        "width" : 320
      }, {
        "height" : 160,
        "url" : "https://i.scdn.co/image/e36feb919242453d6e178d26ba15938031bc0572",
        "width" : 160
      } ],
      "name" : "Thomas Rhett",
      "popularity" : 78,
      "type" : "artist",
      "uri" : "spotify:artist:6x2LnllRG5uGarZMsD4iO8"
    }, {
      "external_urls" : {
        "spotify" : "https://open.spotify.com/artist/7z5WFjZAIYejWy0NI5lv4T"
      },
      "followers" : {
        "href" : null,
        "total" : 620272
      },
      "genres" : [ "contemporary country" ],
      "href" : "https://api.spotify.com/v1/artists/7z5WFjZAIYejWy0NI5lv4T",
      "id" : "7z5WFjZAIYejWy0NI5lv4T",
      "images" : [ {
        "height" : 640,
        "url" : "https://i.scdn.co/image/4fab6d2b5a3be7322bc13100e9c1d30f5ac56993",
        "width" : 640
      }, {
        "height" : 320,
        "url" : "https://i.scdn.co/image/11b8db84cf4ac0cae5d4e9596db70ac8c82cfcae",
        "width" : 320
      }, {
        "height" : 160,
        "url" : "https://i.scdn.co/image/beab9f3f0ff2aff939a922e34450289172e41c67",
        "width" : 160
      } ],
      "name" : "Dan + Shay",
      "popularity" : 78,
      "type" : "artist",
      "uri" : "spotify:artist:7z5WFjZAIYejWy0NI5lv4T"
    }, {
      "external_urls" : {
        "spotify" : "https://open.spotify.com/artist/3grHWM9bx2E9vwJCdlRv9O"
      },
      "followers" : {
        "href" : null,
        "total" : 2182684
      },
      "genres" : [ "contemporary country", "country", "country road" ],
      "href" : "https://api.spotify.com/v1/artists/3grHWM9bx2E9vwJCdlRv9O",
      "id" : "3grHWM9bx2E9vwJCdlRv9O",
      "images" : [ {
        "height" : 640,
        "url" : "https://i.scdn.co/image/f828755d53152d96a251fed0758d99db8682a0ae",
        "width" : 640
      }, {
        "height" : 320,
        "url" : "https://i.scdn.co/image/a8e5e96d81dea16b8913dd64b163505452bf8c2a",
        "width" : 320
      }, {
        "height" : 160,
        "url" : "https://i.scdn.co/image/34ca95b359af97ca756c972559d6264ebaceebac",
        "width" : 160
      } ],
      "name" : "Kenny Chesney",
      "popularity" : 75,
      "type" : "artist",
      "uri" : "spotify:artist:3grHWM9bx2E9vwJCdlRv9O"
    }, {
      "external_urls" : {
        "spotify" : "https://open.spotify.com/artist/6roFdX1y5BYSbp60OTJWMd"
      },
      "followers" : {
        "href" : null,
        "total" : 2497681
      },
      "genres" : [ "contemporary country", "country", "country road" ],
      "href" : "https://api.spotify.com/v1/artists/6roFdX1y5BYSbp60OTJWMd",
      "id" : "6roFdX1y5BYSbp60OTJWMd",
      "images" : [ {
        "height" : 640,
        "url" : "https://i.scdn.co/image/30c119be53aa255c989d85015648b99a7989852b",
        "width" : 640
      }, {
        "height" : 320,
        "url" : "https://i.scdn.co/image/4305d7ba3dbfaecb828692192efb947369db4541",
        "width" : 320
      }, {
        "height" : 160,
        "url" : "https://i.scdn.co/image/182f7c7acf0f4df5e5cb8043c9afed0d4bdf581e",
        "width" : 160
      } ],
      "name" : "Tim McGraw",
      "popularity" : 75,
      "type" : "artist",
      "uri" : "spotify:artist:6roFdX1y5BYSbp60OTJWMd"
    }, {
      "external_urls" : {
        "spotify" : "https://open.spotify.com/artist/2IvkS5MXK0vPGnwyJsrEyV"
      },
      "followers" : {
        "href" : null,
        "total" : 1752619
      },
      "genres" : [ "contemporary country", "country", "country road", "modern country rock" ],
      "href" : "https://api.spotify.com/v1/artists/2IvkS5MXK0vPGnwyJsrEyV",
      "id" : "2IvkS5MXK0vPGnwyJsrEyV",
      "images" : [ {
        "height" : 640,
        "url" : "https://i.scdn.co/image/f052d17f87d18447b42ddf9c31b8721461c30d44",
        "width" : 640
      }, {
        "height" : 320,
        "url" : "https://i.scdn.co/image/ce794e14a0683a16c3a70963418d936f55c20ea9",
        "width" : 320
      }, {
        "height" : 160,
        "url" : "https://i.scdn.co/image/98dedabb54bf5f756c05036d9be3fa970065f07e",
        "width" : 160
      } ],
      "name" : "Eric Church",
      "popularity" : 75,
      "type" : "artist",
      "uri" : "spotify:artist:2IvkS5MXK0vPGnwyJsrEyV"
    }, {
      "external_urls" : {
        "spotify" : "https://open.spotify.com/artist/1UTPBmNbXNTittyMJrNkvw"
      },
      "followers" : {
        "href" : null,
        "total" : 3884543
      },
      "genres" : [ "contemporary country", "country", "country road" ],
      "href" : "https://api.spotify.com/v1/artists/1UTPBmNbXNTittyMJrNkvw",
      "id" : "1UTPBmNbXNTittyMJrNkvw",
      "images" : [ {
        "height" : 640,
        "url" : "https://i.scdn.co/image/7b484c0e5dc706eda31f26ab4ca4e3431ecd0748",
        "width" : 640
      }, {
        "height" : 320,
        "url" : "https://i.scdn.co/image/768dc39978a2083174311664e3f15011ff9f7049",
        "width" : 320
      }, {
        "height" : 160,
        "url" : "https://i.scdn.co/image/463c09daf8057e8a1adfc9a709f10f89ca76d9e9",
        "width" : 160
      } ],
      "name" : "Blake Shelton",
      "popularity" : 75,
      "type" : "artist",
      "uri" : "spotify:artist:1UTPBmNbXNTittyMJrNkvw"
    }, {
      "external_urls" : {
        "spotify" : "https://open.spotify.com/artist/4YLtscXsxbVgi031ovDDdh"
      },
      "followers" : {
        "href" : null,
        "total" : 1097033
      },
      "genres" : [ "contemporary country" ],
      "href" : "https://api.spotify.com/v1/artists/4YLtscXsxbVgi031ovDDdh",
      "id" : "4YLtscXsxbVgi031ovDDdh",
      "images" : [ {
        "height" : 640,
        "url" : "https://i.scdn.co/image/e11519e9cd6bcc5777a2e2a1cd47d0ca19446882",
        "width" : 640
      }, {
        "height" : 320,
        "url" : "https://i.scdn.co/image/1e1729c6285686e56dbaf7dafceff95246c37c51",
        "width" : 320
      }, {
        "height" : 160,
        "url" : "https://i.scdn.co/image/c5e9dad1b62d610815fa41d86c59efcbb36509e5",
        "width" : 160
      } ],
      "name" : "Chris Stapleton",
      "popularity" : 77,
      "type" : "artist",
      "uri" : "spotify:artist:4YLtscXsxbVgi031ovDDdh"
    }, {
      "external_urls" : {
        "spotify" : "https://open.spotify.com/artist/5vngPClqofybhPERIqQMYd"
      },
      "followers" : {
        "href" : null,
        "total" : 985045
      },
      "genres" : [ "contemporary country", "country", "country road", "traditional country" ],
      "href" : "https://api.spotify.com/v1/artists/5vngPClqofybhPERIqQMYd",
      "id" : "5vngPClqofybhPERIqQMYd",
      "images" : [ {
        "height" : 640,
        "url" : "https://i.scdn.co/image/5be32a5d857da9f763e23f8dc43e82ecdea4a067",
        "width" : 640
      }, {
        "height" : 320,
        "url" : "https://i.scdn.co/image/72b7b44d43b5c6971a0cbf0a58eec6c2abb393a1",
        "width" : 320
      }, {
        "height" : 160,
        "url" : "https://i.scdn.co/image/ecab1451a369d3998dbb3f0833713a9c10a2f1f3",
        "width" : 160
      } ],
      "name" : "George Strait",
      "popularity" : 73,
      "type" : "artist",
      "uri" : "spotify:artist:5vngPClqofybhPERIqQMYd"
    }, {
      "external_urls" : {
        "spotify" : "https://open.spotify.com/artist/6yJCxee7QumYr820xdIsjo"
      },
      "followers" : {
        "href" : null,
        "total" : 1256616
      },
      "genres" : [ "contemporary country", "country", "country road", "modern country rock" ],
      "href" : "https://api.spotify.com/v1/artists/6yJCxee7QumYr820xdIsjo",
      "id" : "6yJCxee7QumYr820xdIsjo",
      "images" : [ {
        "height" : 640,
        "url" : "https://i.scdn.co/image/7c5c4327c99722de3fd5d781c06e62401b5b8ea5",
        "width" : 640
      }, {
        "height" : 320,
        "url" : "https://i.scdn.co/image/797ffe4c95881e68ead079aecc45efa9d7200eff",
        "width" : 320
      }, {
        "height" : 160,
        "url" : "https://i.scdn.co/image/b510b35f18d23e467bbda3d58877b72257208d5f",
        "width" : 160
      } ],
      "name" : "Zac Brown Band",
      "popularity" : 75,
      "type" : "artist",
      "uri" : "spotify:artist:6yJCxee7QumYr820xdIsjo"
    }, {
      "external_urls" : {
        "spotify" : "https://open.spotify.com/artist/0u2FHSq3ln94y5Q57xazwf"
      },
      "followers" : {
        "href" : null,
        "total" : 2787344
      },
      "genres" : [ "australian country", "contemporary country", "country", "country road" ],
      "href" : "https://api.spotify.com/v1/artists/0u2FHSq3ln94y5Q57xazwf",
      "id" : "0u2FHSq3ln94y5Q57xazwf",
      "images" : [ {
        "height" : 640,
        "url" : "https://i.scdn.co/image/7c3954e6c88355a8cd5b41e1131765aa1b7afbce",
        "width" : 640
      }, {
        "height" : 320,
        "url" : "https://i.scdn.co/image/87b8b7de977e5f267da5311f7d3ab6d8d157c98f",
        "width" : 320
      }, {
        "height" : 160,
        "url" : "https://i.scdn.co/image/9f6764ae24c86eff6ca952005771ed721fa4005d",
        "width" : 160
      } ],
      "name" : "Keith Urban",
      "popularity" : 75,
      "type" : "artist",
      "uri" : "spotify:artist:0u2FHSq3ln94y5Q57xazwf"
    }, {
      "external_urls" : {
        "spotify" : "https://open.spotify.com/artist/6kACVPfCOnqzgfEF5ryl0x"
      },
      "followers" : {
        "href" : null,
        "total" : 2891416
      },
      "genres" : [ "outlaw country", "traditional country" ],
      "href" : "https://api.spotify.com/v1/artists/6kACVPfCOnqzgfEF5ryl0x",
      "id" : "6kACVPfCOnqzgfEF5ryl0x",
      "images" : [ {
        "height" : 640,
        "url" : "https://i.scdn.co/image/4eac84cd2ac4bf737f80ab9cd2357d41a11229fb",
        "width" : 640
      }, {
        "height" : 320,
        "url" : "https://i.scdn.co/image/9843d2085246e5cc7dcf98429dc7b4f6682fb37f",
        "width" : 320
      }, {
        "height" : 160,
        "url" : "https://i.scdn.co/image/db4ff48f1170deaa0daa299f9b1617d7c6204928",
        "width" : 160
      } ],
      "name" : "Johnny Cash",
      "popularity" : 78,
      "type" : "artist",
      "uri" : "spotify:artist:6kACVPfCOnqzgfEF5ryl0x"
    }, {
      "external_urls" : {
        "spotify" : "https://open.spotify.com/artist/6y8XlgIV8BLlIg1tT1R10i"
      },
      "followers" : {
        "href" : null,
        "total" : 410066
      },
      "genres" : [ "contemporary country", "country road" ],
      "href" : "https://api.spotify.com/v1/artists/6y8XlgIV8BLlIg1tT1R10i",
      "id" : "6y8XlgIV8BLlIg1tT1R10i",
      "images" : [ {
        "height" : 640,
        "url" : "https://i.scdn.co/image/de6dbc4ce3816a77f24ba750417d30a2767b4abc",
        "width" : 640
      }, {
        "height" : 320,
        "url" : "https://i.scdn.co/image/4e7a9d67d6070b0d5d3bc6383a3b9334f6f082bf",
        "width" : 320
      }, {
        "height" : 160,
        "url" : "https://i.scdn.co/image/54b2efa419bacb9e1ad944a1376ead688a78ca1a",
        "width" : 160
      } ],
      "name" : "Old Dominion",
      "popularity" : 73,
      "type" : "artist",
      "uri" : "spotify:artist:6y8XlgIV8BLlIg1tT1R10i"
    }, {
      "external_urls" : {
        "spotify" : "https://open.spotify.com/artist/7x8nK0m0cP2ksQf0mjWdPS"
      },
      "followers" : {
        "href" : null,
        "total" : 1575815
      },
      "genres" : [ "canadian contemporary country", "contemporary country", "country", "country road", "modern country rock" ],
      "href" : "https://api.spotify.com/v1/artists/7x8nK0m0cP2ksQf0mjWdPS",
      "id" : "7x8nK0m0cP2ksQf0mjWdPS",
      "images" : [ {
        "height" : 640,
        "url" : "https://i.scdn.co/image/579d55c439738a618c53861cfd3504666866db02",
        "width" : 640
      }, {
        "height" : 320,
        "url" : "https://i.scdn.co/image/af9cd933c06ae8a87204239feb7e7c2a7a1d4cbf",
        "width" : 320
      }, {
        "height" : 160,
        "url" : "https://i.scdn.co/image/2d37d5abf9d5a5d11e478ace8476db8471881ea8",
        "width" : 160
      } ],
      "name" : "Dierks Bentley",
      "popularity" : 73,
      "type" : "artist",
      "uri" : "spotify:artist:7x8nK0m0cP2ksQf0mjWdPS"
    }, {
      "external_urls" : {
        "spotify" : "https://open.spotify.com/artist/2kucQ9jQwuD8jWdtR9Ef38"
      },
      "followers" : {
        "href" : null,
        "total" : 1482903
      },
      "genres" : [ "contemporary country" ],
      "href" : "https://api.spotify.com/v1/artists/2kucQ9jQwuD8jWdtR9Ef38",
      "id" : "2kucQ9jQwuD8jWdtR9Ef38",
      "images" : [ {
        "height" : 640,
        "url" : "https://i.scdn.co/image/ec10a71b35d2f9daa9cc411389bc0e403bee2405",
        "width" : 640
      }, {
        "height" : 320,
        "url" : "https://i.scdn.co/image/8de07a7cfada610eb940624cbd5896e10c7f92d5",
        "width" : 320
      }, {
        "height" : 160,
        "url" : "https://i.scdn.co/image/84e943cbc6ccd9ca0699d9f7746ee18fda893c96",
        "width" : 160
      } ],
      "name" : "Sam Hunt",
      "popularity" : 74,
      "type" : "artist",
      "uri" : "spotify:artist:2kucQ9jQwuD8jWdtR9Ef38"
    }, {
      "external_urls" : {
        "spotify" : "https://open.spotify.com/artist/6WY7D3jk8zTrHtmkqqo5GI"
      },
      "followers" : {
        "href" : null,
        "total" : 262998
      },
      "genres" : [ "contemporary country" ],
      "href" : "https://api.spotify.com/v1/artists/6WY7D3jk8zTrHtmkqqo5GI",
      "id" : "6WY7D3jk8zTrHtmkqqo5GI",
      "images" : [ {
        "height" : 640,
        "url" : "https://i.scdn.co/image/80cace199aedda9e83275f839e03287ea162e494",
        "width" : 640
      }, {
        "height" : 320,
        "url" : "https://i.scdn.co/image/5610142dc96a7a93c179196f3bec598387ac1abd",
        "width" : 320
      }, {
        "height" : 160,
        "url" : "https://i.scdn.co/image/14fd8b2579179d5731d9d074b69d55d933336400",
        "width" : 160
      } ],
      "name" : "Maren Morris",
      "popularity" : 77,
      "type" : "artist",
      "uri" : "spotify:artist:6WY7D3jk8zTrHtmkqqo5GI"
    } ],
    "limit" : 20,
    "next" : "https://api.spotify.com/v1/search?query=genre%3A%22country%22&type=artist&offset=20&limit=20",
    "offset" : 0,
    "previous" : null,
    "total" : 2458
  }
}